26, 1, 470, 1
26, 5, 566, 1
26, 2, 132, 1
26, 6, 285, 1
26, 27, 125, 1
26, 33, 309, 1
27, 29, 561, 1
27, 3, 284, 1
27, 23, 470, 1
29, 30, 246, 1
29, 31, 116, 1
29, 3, 284, 1
29, 23, 470, 1
31, 32, 152, 1
31, 34, 300, 1
31, 30, 280, 1
32, 7, 21, 1
32, 4, 321, 1
33, 6, 300, 1
33, 9, 380, 1
33, 10, 211, 1
33, 38, 273, 1
33, 11, 193, 1
33, 36, 618, 1
34, 7, 186, 1
34, 12, 265, 1
34, 8, 475, 1
34, 13, 622, 1
34, 15, 747, 1
34, 14, 870, 1
34, 35, 940, 1
34, 40, 279, 1
34, 11, 195, 1
35, 22, 146, 1
35, 15, 257, 1
35, 14, 124, 1
35, 13, 370, 1
35, 12, 629, 1
35, 8, 531, 1
35, 7, 820, 1
35, 42, 279, 1
36, 9, 238, 1
36, 16, 157, 1
36, 37, 80, 1
36, 38, 345, 1
36, 10, 147, 1
36, 17, 243, 1
36, 6, 394, 1
37, 10, 135, 1
37, 17, 277, 1
37, 38, 333, 1
38, 17, 116, 1
38, 11, 146, 1
38, 39, 390, 1
38, 40, 655, 1
38, 10, 256, 1
39, 24, 168, 1
39, 18, 287, 1
39, 40, 361, 1
40, 11, 136, 1
40, 41, 207, 1
40, 19, 467, 1
40, 12, 207, 1
40, 13, 474, 1
40, 14, 722, 1
40, 20, 761, 1
40, 42, 940, 1
42, 43, 32, 1
42, 25, 314, 1
42, 21, 187, 1
42, 22, 191, 1
42, 20, 114, 1
42, 14, 280, 1
42, 13, 520, 1
42, 12, 793, 1
42, 19, 531, 1
42, 41, 793, 1
42, 35, 279, 1
41, 12, 60, 1
41, 13, 327, 1
41, 14, 585, 1
41, 20, 624, 1
41, 19, 320, 1
75, 50, 50, 1
75, 51, 564, 1
75, 76, 916, 1
75, 53, 219, 1
75, 54, 172, 1
75, 81, 411, 1
76, 77, 267, 1
76, 78, 503, 1
76, 84, 348, 1
76, 51, 452, 1
76, 50, 966, 1
76, 54, 856, 1
77, 55, 118, 1
77, 78, 254, 1
77, 80, 269, 1
80, 52, 261, 1
80, 56, 131, 1
80, 79, 199, 1
81, 53, 185, 1
81, 66, 224, 1
81, 82, 85, 1
81, 83, 65, 1
81, 67, 209, 1
81, 68, 677, 1
81, 54, 793, 1
81, 84, 983, 1
82, 66, 213, 1
83, 67, 218, 1
83, 54, 802, 1
83, 68, 676, 1
83, 84, 992, 1
84, 54, 240, 1
84, 68, 378, 1
84, 67, 846, 1
84, 55, 115, 1
84, 85, 209, 1
84, 86, 259, 1
85, 55, 142, 1
86, 55, 192, 1
86, 85, 118, 1
86, 70, 115, 1
86, 56, 138, 1
86, 71, 140, 1
86, 87, 497, 1
87, 56, 407, 1
87, 71, 313, 1
87, 63, 130, 1
87, 64, 125, 1
87, 88, 184, 1
87, 72, 121, 1
87, 91, 212, 1
87, 92, 285, 1
87, 93, 290, 1
88, 63, 116, 1
88, 64, 113, 1
88, 61, 108, 1
88, 62, 104, 1
88, 59, 225, 1
88, 60, 224, 1
88, 57, 327, 1
88, 58, 327, 1
88, 89, 316, 1
89, 94, 186, 1
89, 65, 240, 1
91, 72, 163, 1
91, 92, 137, 1
91, 93, 142, 1
92, 93, 69, 1
92, 72, 236, 1
93, 72, 241, 1
93, 73, 193, 1
93, 94, 76, 1
94, 73, 141, 1
150, 100, 117, 1
150, 101, 245, 1
150, 106, 127, 1
150, 109, 51, 1
150, 118, 167, 1
150, 124, 287, 1
150, 133, 403, 1
150, 134, 419, 1
150, 158, 590, 1
150, 135, 517, 1
150, 125, 366, 1
150, 119, 248, 1
150, 110, 131, 1
150, 151, 357, 1
151, 102, 241, 1
151, 107, 122, 1
151, 103, 240, 1
151, 108, 121, 1
151, 111, 126, 1
151, 120, 244, 1
151, 126, 443, 1
151, 112, 127, 1
151, 121, 244, 1
151, 159, 590, 1
151, 152, 349, 1
152, 104, 190, 1
152, 113, 171, 1
152, 114, 175, 1
152, 128, 448, 1
152, 153, 352, 1
152, 160, 590, 1
153, 154, 92, 1
153, 115, 99, 1
153, 117, 139, 1
153, 116, 170, 1
153, 122, 241, 1
153, 123, 312, 1
153, 129, 382, 1
153, 131, 453, 1
153, 132, 534, 1
153, 130, 528, 1
153, 161, 590, 1
154, 155, 32, 1
154, 105, 209, 1
157, 100, 28, 1
157, 156, 26, 1
157, 158, 138, 1
158, 136, 188, 1
158, 135, 142, 1
158, 134, 121, 1
158, 133, 237, 1
158, 125, 294, 1
158, 124, 353, 1
158, 119, 412, 1
158, 118, 473, 1
158, 110, 529, 1
158, 109, 589, 1
158, 159, 357, 1
159, 126, 207, 1
159, 120, 406, 1
159, 121, 408, 1
159, 111, 524, 1
159, 112, 525, 1
159, 136, 223, 1
159, 137, 173, 1
159, 127, 226, 1
159, 160, 349, 1
160, 137, 228, 1
160, 127, 191, 1
160, 161, 352, 1
160, 128, 208, 1
160, 114, 469, 1
160, 113, 475, 1
160, 138, 106, 1
161, 162, 37, 1
161, 163, 95, 1
161, 130, 126, 1
161, 132, 112, 1
161, 131, 193, 1
161, 129, 264, 1
161, 123, 334, 1
161, 122, 405, 1
161, 116, 474, 1
161, 115, 545, 1
161, 117, 396, 1
163, 139, 126, 1
163, 162, 105, 1
163, 164, 391, 1
164, 140, 26, 1
164, 130, 164, 1
164, 142, 398, 1
164, 165, 234, 1
164, 167, 356, 1
165, 142, 270, 1
165, 143, 262, 1
165, 166, 226, 1
166, 144, 245, 1
167, 168, 29, 1
167, 165, 264, 1
167, 166, 242, 1
167, 141, 175, 1
167, 143, 408, 1
37, 180, 412, 0
82, 180, 9, 0
43, 181, 414, 0
92, 181, 13, 0
30, 182, 412, 0
79, 182, 6, 0
168, 184, 433, 0
91, 184, 13, 0
156, 183, 437, 0
83, 183, 8, 0
155, 185, 419, 0
78, 185, 7, 0
191, 190, 450, 1
191, 192, 450, 1
190, 41, 10, 1
191, 85, 10, 1
192, 162, 10, 1
